0;0.00075;0.006125;0.000167
4.1e-05;0.000834;0.006;0.000292
4.2e-05;0.000916;0.00675;0.000292
4.2e-05;0.000667;0.006167;0.000125
4.2e-05;0.000667;0.006333;0.000166
0;0.000625;0.005917;0.000125
4.2e-05;0.000875;0.007959;0.000166
0;0.000834;0.006208;0.000125
4.1e-05;0.00075;0.006334;0.000333
0;0.000708;0.006083;0.000125
4.1e-05;0.00125;0.007333;0.000167
0;0.000958;0.006875;0.00025
4.2e-05;0.000625;0.005917;0.00025
0;0.000708;0.007042;0.000167
4.1e-05;0.00075;0.005875;0.000167
4.2e-05;0.000667;0.005791;0.000125
0;0.00075;0.007;0.000166
0;0.000625;0.006;0.000166
0;0.000625;0.006167;0.000125
4.1e-05;0.001;0.006542;0.000167
8.3e-05;0.000958;0.006833;0.00025
4.1e-05;0.000708;0.007208;0.000125
0;0.000875;0.006125;0.000125
0;0.000709;0.006125;0.000167
0;0.000667;0.007;0.000167
4.1e-05;0.001084;0.008292;0.000167
0;0.001083;0.008292;0.00025
4.2e-05;0.000667;0.006083;0.000209
0;0.000833;0.00625;0.000166
0;0.000958;0.006625;0.000125
4.2e-05;0.000709;0.005875;0.000167
4.2e-05;0.001167;0.00775;0.000167
0;0.00075;0.006083;0.000125
4.1e-05;0.000916;0.006625;0.000167
4.1e-05;0.00075;0.006209;0.000125
4.2e-05;0.000834;0.006334;0.000208
0;0.000791;0.007166;0.000167
4.1e-05;0.000833;0.006209;0.000292
0;0.000917;0.006041;0.000167
0;0.000958;0.00725;0.000167
0;0.001333;0.007125;0.000166
4.2e-05;0.000792;0.005416;0.000167
0;0.000792;0.00525;0.000166
4.2e-05;0.000708;0.00675;0.000125
4.2e-05;0.000667;0.005375;0.000167
0;0.000834;0.005625;0.00025
4.2e-05;0.000667;0.005292;0.000125
0;0.00075;0.005333;0.000167
4.1e-05;0.000875;0.005625;0.000125
0;0.000833;0.005167;0.000167
4.2e-05;0.001;0.006958;0.000166
0;0.000834;0.005375;0.000167
0;0.001;0.006792;0.000167
4.1e-05;0.000833;0.005375;0.000292
4.2e-05;0.000667;0.005;0.000167
4.2e-05;0.000791;0.005209;0.000333
0.000125;0.001042;0.005916;0.000167
4.1e-05;0.000875;0.005375;0.000125
4.2e-05;0.000833;0.005542;0.000125
4.2e-05;0.001;0.0055;0.000125
Result : 1
Fin
